for /L %a in (50,1,55) do netsh in ip add address "Wi-Fi" 172.16.16.%a 255.255.0.0 172.16.0.1
netsh interface ip set dns "Wi-Fi" static 172.16.0.1



#for home nw
for /L %a in (50,1,55) do netsh in ip add address "Wi-Fi" 192.168.2.%a 255.255.255.0 192.168.2.1
netsh interface ip set dns "Wi-Fi" static 192.168.2.1



for /L %a in (50,1,75) do netsh in ip add address "WiFi" 11.11.16.%a 255.255.0.0 11.11.0.1
netsh interface ip set dns "WiFi" static 11.11.0.1






for /L %a in (50,1,62) do netsh in ip add address "Ethernet" 192.168.26.%a 255.255.0.0 192.168.0.1
netsh interface ip set dns "Ethernet" static 192.168.0.1
