2019-01-29 16:24:32 [CRITICAL] die | jordan scardino-MainThread ->>>- dieing now...
2019-01-29 17:08:57 [CRITICAL] die | jordan scardino-MainThread ->>>- dieing now...
2019-01-29 17:13:50 [CRITICAL] die | jordan scardino-MainThread ->>>- dieing now...
2019-01-29 19:21:45 [CRITICAL] die | jordan scardino-MainThread ->>>- dieing now...
2019-01-29 19:26:23 [CRITICAL] die | jordan scardino-MainThread ->>>- dieing now...
2019-01-29 20:35:55 [CRITICAL] die | jordan scardino-MainThread ->>>- dieing now...
